[
    {
        "name": "Салаты",
        "photoName": "Salad",
        "recipes": [
            {
                "name": "Цезарь с курицей",
                "titleImage": "Rectangle 46",
                "numberOfServings": 2,
                "time": 5,
                "difficult": 1,
                "teg": "#Чизкейк #Панкейк",
                "comment": "Какой то комент для приготовления рецепта Цезарь с курицей",
                "cookingStage": [
                    {
                        "number": 1,
                        "description": "На раскаленную сковороду добавьте смесь теста для панкейков и обжарьте с каждой стороны по 2 минуты.",
                        "image": "MainBackground"
                    },
                    {
                        "number": 2,
                        "description": "Полейте панкейк карамельным топпингом и наслаждайтесь вкусным завтраком.",
                        "image": "MainBackground"
                    }
                ],
                "section": [
                    {
                        "name": "Тесто",
                        "ingredient":
                        [
                            {
                                "name": "Сыр",
                                "amount": 2,
                                "unit": "кг"
                            },
                            {
                                "name": "Масло",
                                "amount": 3,
                                "unit": "кг"
                            }
                        ]
                    },
                    {
                        "name": "Начинка",
                        "ingredient":
                        [
                            {
                                "name": "Фрукты",
                                "amount": 2,
                                "unit": "кг"
                            }
                        ]
                    }
                ]
            },
            {
                "name": "Теплый салат с говядиной",
                "titleImage": "Rectangle 47",
                "numberOfServings": 2,
                "time": 5,
                "difficult": 1,
                "teg": "#Чизкейк #Панкейк",
                "comment": "Какой то комент для приготовления рецепта Теплый салат с говядиной",
                "cookingStage": [
                    {
                        "number": 1,
                        "description": "На раскаленную сковороду добавьте смесь теста для панкейков и обжарьте с каждой стороны по 2 минуты.",
                        "image": "MainBackground"
                    },
                    {
                        "number": 2,
                        "description": "Полейте панкейк карамельным топпингом и наслаждайтесь вкусным завтраком.",
                        "image": "MainBackground"
                    }
                ],
                "section": [
                    {
                        "name": "Тесто",
                        "ingredient":
                        [
                            {
                                "name": "Сыр",
                                "amount": 2,
                                "unit": "кг"
                            },
                            {
                                "name": "Масло",
                                "amount": 3,
                                "unit": "кг"
                            }
                        ]
                    },
                    {
                        "name": "Начинка",
                        "ingredient":
                        [
                            {
                                "name": "Фрукты",
                                "amount": 2,
                                "unit": "кг"
                            }
                        ]
                    }
                ]
            }
        ]
    },
    {
        "name": "Закуски",
        "photoName": "Snack",
        "recipes": [
            {
                "name": "Рулеты из баклажана",
                "titleImage": "MainBackground",
                "numberOfServings": 2,
                "time": 5,
                "difficult": 1,
                "teg": "#Чизкейк #Панкейк",
                "comment": "Какой то комент для приготовления рецепта Рулеты из баклажана",
                "cookingStage": [
                    {
                        "number": 1,
                        "description": "На раскаленную сковороду добавьте смесь теста для панкейков и обжарьте с каждой стороны по 2 минуты.",
                        "image": "MainBackground"
                    },
                    {
                        "number": 2,
                        "description": "Полейте панкейк карамельным топпингом и наслаждайтесь вкусным завтраком.",
                        "image": "MainBackground"
                    }
                ],
                "section": [
                    {
                        "name": "Тесто",
                        "ingredient":
                        [
                            {
                                "name": "Сыр",
                                "amount": 2,
                                "unit": "кг"
                            },
                            {
                                "name": "Масло",
                                "amount": 3,
                                "unit": "кг"
                            }
                        ]
                    },
                    {
                        "name": "Начинка",
                        "ingredient":
                        [
                            {
                                "name": "Фрукты",
                                "amount": 2,
                                "unit": "кг"
                            }
                        ]
                    }
                ]
            },
            {
                "name": "Канапэ",
                "titleImage": "MainBackground",
                "numberOfServings": 2,
                "time": 5,
                "difficult": 1,
                "teg": "#Чизкейк #Панкейк",
                "comment": "Какой то комент для приготовления рецепта Канапэ",
                "cookingStage": [
                    {
                        "number": 1,
                        "description": "На раскаленную сковороду добавьте смесь теста для панкейков и обжарьте с каждой стороны по 2 минуты.",
                        "image": "MainBackground"
                    },
                    {
                        "number": 2,
                        "description": "Полейте панкейк карамельным топпингом и наслаждайтесь вкусным завтраком.",
                        "image": "MainBackground"
                    }
                ],
                "section": [
                    {
                        "name": "Тесто",
                        "ingredient":
                        [
                            {
                                "name": "Сыр",
                                "amount": 2,
                                "unit": "кг"
                            },
                            {
                                "name": "Масло",
                                "amount": 3,
                                "unit": "кг"
                            }
                        ]
                    },
                    {
                        "name": "Начинка",
                        "ingredient":
                        [
                            {
                                "name": "Фрукты",
                                "amount": 2,
                                "unit": "кг"
                            }
                        ]
                    }
                ]
            }
        ]
    },
    {
        "name": "Второе",
        "photoName": "Second dish",
        "recipes": [
            {
                "name": "Котлета по киевски",
                "titleImage": "MainBackground",
                "numberOfServings": 2,
                "time": 5,
                "difficult": 1,
                "teg": "#Чизкейк #Панкейк",
                "comment": "Какой то комент для приготовления рецепта Котлета по киевски",
                "cookingStage": [
                    {
                        "number": 1,
                        "description": "На раскаленную сковороду добавьте смесь теста для панкейков и обжарьте с каждой стороны по 2 минуты.",
                        "image": "MainBackground"
                    },
                    {
                        "number": 2,
                        "description": "Полейте панкейк карамельным топпингом и наслаждайтесь вкусным завтраком.",
                        "image": "MainBackground"
                    }
                ],
                "section": [
                    {
                        "name": "Тесто",
                        "ingredient":
                        [
                            {
                                "name": "Сыр",
                                "amount": 2,
                                "unit": "кг"
                            },
                            {
                                "name": "Масло",
                                "amount": 3,
                                "unit": "кг"
                            }
                        ]
                    },
                    {
                        "name": "Начинка",
                        "ingredient":
                        [
                            {
                                "name": "Фрукты",
                                "amount": 2,
                                "unit": "кг"
                            }
                        ]
                    }
                ]
            },
            {
                "name": "Шницель",
                "titleImage": "MainBackground",
                "numberOfServings": 2,
                "time": 5,
                "difficult": 1,
                "teg": "#Чизкейк #Панкейк",
                "comment": "Какой то комент для приготовления рецепта Шницель",
                "cookingStage": [
                    {
                        "number": 1,
                        "description": "На раскаленную сковороду добавьте смесь теста для панкейков и обжарьте с каждой стороны по 2 минуты.",
                        "image": "MainBackground"
                    },
                    {
                        "number": 2,
                        "description": "Полейте панкейк карамельным топпингом и наслаждайтесь вкусным завтраком.",
                        "image": "MainBackground"
                    }
                ],
                "section": [
                    {
                        "name": "Тесто",
                        "ingredient":
                        [
                            {
                                "name": "Сыр",
                                "amount": 2,
                                "unit": "кг"
                            },
                            {
                                "name": "Масло",
                                "amount": 3,
                                "unit": "кг"
                            }
                        ]
                    },
                    {
                        "name": "Начинка",
                        "ingredient":
                        [
                            {
                                "name": "Фрукты",
                                "amount": 2,
                                "unit": "кг"
                            }
                        ]
                    }
                ]
            }
        ]
    },
    {
        "name": "Гарнир",
        "photoName": "Side dish",
        "recipes": [
            {
                "name": "Бурый рис",
                "titleImage": "MainBackground",
                "numberOfServings": 2,
                "time": 5,
                "difficult": 1,
                "teg": "#Чизкейк #Панкейк",
                "comment": "Какой то комент для приготовления рецепта Гарнир",
                "cookingStage": [
                    {
                        "number": 1,
                        "description": "На раскаленную сковороду добавьте смесь теста для панкейков и обжарьте с каждой стороны по 2 минуты.",
                        "image": "MainBackground"
                    },
                    {
                        "number": 2,
                        "description": "Полейте панкейк карамельным топпингом и наслаждайтесь вкусным завтраком.",
                        "image": "MainBackground"
                    }
                ],
                "section": [
                    {
                        "name": "Тесто",
                        "ingredient":
                        [
                            {
                                "name": "Сыр",
                                "amount": 2,
                                "unit": "кг"
                            },
                            {
                                "name": "Масло",
                                "amount": 3,
                                "unit": "кг"
                            }
                        ]
                    },
                    {
                        "name": "Начинка",
                        "ingredient":
                        [
                            {
                                "name": "Фрукты",
                                "amount": 2,
                                "unit": "кг"
                            }
                        ]
                    }
                ]
            },
            {
                "name": "Картофельное пюре",
                "titleImage": "MainBackground",
                "numberOfServings": 2,
                "time": 5,
                "difficult": 1,
                "teg": "#Чизкейк #Панкейк",
                "comment": "Какой то комент для приготовления рецепта Картофельное пюре",
                "cookingStage": [
                    {
                        "number": 1,
                        "description": "На раскаленную сковороду добавьте смесь теста для панкейков и обжарьте с каждой стороны по 2 минуты.",
                        "image": "MainBackground"
                    },
                    {
                        "number": 2,
                        "description": "Полейте панкейк карамельным топпингом и наслаждайтесь вкусным завтраком.",
                        "image": "MainBackground"
                    }
                ],
                "section": [
                    {
                        "name": "Тесто",
                        "ingredient":
                        [
                            {
                                "name": "Сыр",
                                "amount": 2,
                                "unit": "кг"
                            },
                            {
                                "name": "Масло",
                                "amount": 3,
                                "unit": "кг"
                            }
                        ]
                    },
                    {
                        "name": "Начинка",
                        "ingredient":
                        [
                            {
                                "name": "Фрукты",
                                "amount": 2,
                                "unit": "кг"
                            }
                        ]
                    }
                ]
            }
        ]
    },
    {
        "name": "Десерты",
        "photoName": "Dessert",
        "recipes": [
            {
                "name": "Тирамису",
                "titleImage": "MainBackground",
                "numberOfServings": 2,
                "time": 5,
                "difficult": 1,
                "teg": "#Чизкейк #Панкейк",
                "comment": "Какой то комент для приготовления рецепта Тирамису",
                "cookingStage": [
                    {
                        "number": 1,
                        "description": "На раскаленную сковороду добавьте смесь теста для панкейков и обжарьте с каждой стороны по 2 минуты.",
                        "image": "MainBackground"
                    },
                    {
                        "number": 2,
                        "description": "Полейте панкейк карамельным топпингом и наслаждайтесь вкусным завтраком.",
                        "image": "MainBackground"
                    }
                ],
                "section": [
                    {
                        "name": "Тесто",
                        "ingredient":
                        [
                            {
                                "name": "Сыр",
                                "amount": 2,
                                "unit": "кг"
                            },
                            {
                                "name": "Масло",
                                "amount": 3,
                                "unit": "кг"
                            }
                        ]
                    },
                    {
                        "name": "Начинка",
                        "ingredient":
                        [
                            {
                                "name": "Фрукты",
                                "amount": 2,
                                "unit": "кг"
                            }
                        ]
                    }
                ]
            },
            {
                "name": "Шарлотка",
                "titleImage": "MainBackground",
                "numberOfServings": 2,
                "time": 5,
                "difficult": 1,
                "teg": "#Чизкейк #Панкейк",
                "comment": "Какой то комент для приготовления рецепта Шарлотка",
                "cookingStage": [
                    {
                        "number": 1,
                        "description": "На раскаленную сковороду добавьте смесь теста для панкейков и обжарьте с каждой стороны по 2 минуты.",
                        "image": "MainBackground"
                    },
                    {
                        "number": 2,
                        "description": "Полейте панкейк карамельным топпингом и наслаждайтесь вкусным завтраком.",
                        "image": "MainBackground"
                    }
                ],
                "section": [
                    {
                        "name": "Тесто",
                        "ingredient":
                        [
                            {
                                "name": "Сыр",
                                "amount": 2,
                                "unit": "кг"
                            },
                            {
                                "name": "Масло",
                                "amount": 3,
                                "unit": "кг"
                            }
                        ]
                    },
                    {
                        "name": "Начинка",
                        "ingredient":
                        [
                            {
                                "name": "Фрукты",
                                "amount": 2,
                                "unit": "кг"
                            }
                        ]
                    }
                ]
            }
        ]
    }
]
